	 LOCATION : 0,0,NORTH
	 LOCATION : 0,4,NORTH
	 LOCATION : 0,4,NORTH
	 LOCATION : 0,4,EAST
	 LOCATION : 4,4,EAST
	 LOCATION : 4,4,EAST
	 LOCATION : 4,4,SOUTH
	 LOCATION : 4,0,SOUTH
	 LOCATION : 4,0,SOUTH
	 LOCATION : 4,0,WEST
	 LOCATION : 0,0,WEST
	 LOCATION : 0,0,WEST
	 LOCATION : 0,0,NORTH